Certificate Request:
    Data:
        Version: 0 (0x0)
        Subject: emailAddress = Humrobo@gmail.com, C = IN, OU = It Company, O = Humrobo Technologies, L = Mohali, CN = humrobo.com, ST = Punjab
        Subject Public Key Info:
            Public Key Algorithm: rsaEncryption
                Public-Key: (2048 bit)
                Modulus:
                    00:a0:6f:13:71:72:c0:aa:34:63:31:6d:92:21:38:
                    60:57:86:31:8d:a5:69:d3:1c:c8:c0:ee:ea:56:4d:
                    13:5c:ea:a9:16:44:14:fc:e2:37:0b:fc:c0:44:86:
                    27:6f:7d:88:ca:89:1a:5c:47:5e:0e:43:9a:df:e1:
                    09:d4:90:01:9c:c2:4a:33:3d:5d:c9:fc:24:eb:82:
                    76:4a:48:92:e2:38:5b:99:f0:8f:a8:9e:c0:fd:0c:
                    55:1b:52:66:2e:03:56:a6:63:c3:60:41:db:bc:ea:
                    c2:92:7f:16:7f:8d:24:e3:d6:12:ae:14:0e:b3:29:
                    3e:80:89:66:f8:0a:2f:23:78:ba:e8:f3:4f:ce:27:
                    91:d7:c0:78:03:6d:e9:bb:20:29:22:b2:3a:9f:b6:
                    0d:f9:37:e3:55:ae:fc:04:d6:8f:81:c2:55:a2:45:
                    da:ef:c7:9d:b2:08:4d:61:0c:4d:b0:81:f4:b4:60:
                    34:7c:e5:d2:3a:9e:01:6d:77:9d:ac:e2:a1:f0:de:
                    19:43:08:fa:19:95:69:f0:6a:a9:00:dc:08:10:3d:
                    73:5c:ae:20:94:db:89:cb:1d:df:d4:3e:2c:0e:2c:
                    c1:cb:e6:67:dd:59:7e:9e:25:e6:43:91:88:68:0b:
                    88:66:46:9a:31:f3:a8:ad:4b:e4:a8:be:5c:b5:97:
                    c5:cf
                Exponent: 65537 (0x10001)
        Attributes:
            challengePassword        :unable to print attribute
    Signature Algorithm: sha256WithRSAEncryption
         92:03:f2:be:19:6f:76:31:7a:b5:9c:56:bc:ed:16:44:b8:54:
         5b:c8:dd:45:04:f6:bf:f8:5a:16:f0:d3:04:f1:2d:28:da:88:
         a4:66:46:3e:ee:c9:b6:1c:b4:1b:ca:ff:a5:10:e5:bd:bc:9c:
         a5:c6:0f:07:0c:b6:31:0a:ee:1e:6b:73:3f:08:88:e5:37:bf:
         bc:47:72:d8:3b:7f:a4:ff:5b:7f:b3:ab:b4:32:a9:bd:4f:dc:
         3e:f3:0d:0c:14:57:39:0d:e4:8a:e7:77:08:bf:1c:0c:c5:50:
         44:ef:07:e6:22:0a:ea:e3:21:bd:1c:8c:ca:2f:03:73:8b:39:
         b0:11:ce:70:8e:67:23:52:c6:1f:2e:31:e7:10:a1:67:c0:59:
         a3:46:de:2a:90:c8:c1:e1:31:56:fe:c1:ff:31:4b:08:8a:dc:
         af:fa:62:bb:06:ea:8f:ca:f8:cb:1d:a4:53:41:fb:bb:70:31:
         86:22:66:1f:a9:37:d5:13:b5:57:01:ce:59:6b:6e:73:dc:19:
         af:5f:17:8e:b3:a8:ed:c5:5a:54:61:67:76:c5:b6:c3:b4:35:
         6a:63:42:2b:cf:70:70:76:cc:e7:81:3b:71:8c:c7:b6:53:4a:
         60:1d:50:80:c5:f4:52:c0:6f:0d:56:c7:98:ea:d5:5a:73:2d:
         65:81:57:92